{
  "devToolsPort": 19002,
  "expoServerPort": 19000,
  "packagerPort": 19001,
  "packagerPid": 4076,
  "expoServerNgrokUrl": "https://va-vg7.anonymous.persona.exp.direct",
  "packagerNgrokUrl": "https://packager.va-vg7.anonymous.persona.exp.direct",
  "ngrokPid": 4103,
  "webpackServerPort": null
}
